^C:\USERS\COSTIN\DOWNLOADS\WINDOWSFORMSAPPLICATION1\WINDOWSFORMSAPPLICATION1\PROPERTIES\RESOURCES.RESX
C:\WINDOWS\ASSEMBLY\PUBPOL27.DAT
C:\WINDOWS\MICROSOFT.NET\ASSEMBLY\GAC_MSIL\MICROSOFT.BUILD.TASKS.V4.0\V4.0_4.0.0.0__B03F5F7F11D50A3A\MICROSOFT.BUILD.TASKS.V4.0.DLL
C:\USERS\COSTIN\DOWNLOADS\WINDOWSFORMSAPPLICATION1\WINDOWSFORMSAPPLICATION1\RESOURCES\CHICKEN.PNG
C:\USERS\COSTIN\DOWNLOADS\WINDOWSFORMSAPPLICATION1\WINDOWSFORMSAPPLICATION1\RESOURCES\COSCUOUA.GIF
^C:\USERS\COSTIN\DOWNLOADS\WINDOWSFORMSAPPLICATION1\WINDOWSFORMSAPPLICATION1\FORM1.RESX
C:\WINDOWS\ASSEMBLY\PUBPOL27.DAT
^C:\USERS\COSTIN\DESKTOP\WINDOWSFORMSAPPLICATION1 (2)\WINDOWSFORMSAPPLICATION1\WINDOWSFORMSAPPLICATION1\PROPERTIES\RESOURCES.RESX
C:\USERS\COSTIN\DESKTOP\WINDOWSFORMSAPPLICATION1 (2)\WINDOWSFORMSAPPLICATION1\WINDOWSFORMSAPPLICATION1\RESOURCES\CHICKEN.PNG
C:\USERS\COSTIN\DESKTOP\WINDOWSFORMSAPPLICATION1 (2)\WINDOWSFORMSAPPLICATION1\WINDOWSFORMSAPPLICATION1\RESOURCES\COSCUOUA.GIF
^C:\USERS\COSTIN\DESKTOP\WINDOWSFORMSAPPLICATION1 (2)\WINDOWSFORMSAPPLICATION1\WINDOWSFORMSAPPLICATION1\FORM1.RESX
C:\WINDOWS\ASSEMBLY\PUBPOL27.DAT
C:\WINDOWS\MICROSOFT.NET\ASSEMBLY\GAC_MSIL\MICROSOFT.BUILD.TASKS.V4.0\V4.0_4.0.0.0__B03F5F7F11D50A3A\MICROSOFT.BUILD.TASKS.V4.0.DLL
^C:\USERS\COSTIN\DESKTOP\MAZE\WINDOWSFORMSAPPLICATION1\WINDOWSFORMSAPPLICATION1\FORM1.RESX
C:\WINDOWS\ASSEMBLY\PUBPOL27.DAT
C:\WINDOWS\MICROSOFT.NET\ASSEMBLY\GAC_MSIL\MICROSOFT.BUILD.TASKS.V4.0\V4.0_4.0.0.0__B03F5F7F11D50A3A\MICROSOFT.BUILD.TASKS.V4.0.DLL
^C:\USERS\COSTIN\DESKTOP\MAZE\WINDOWSFORMSAPPLICATION1\WINDOWSFORMSAPPLICATION1\PROPERTIES\RESOURCES.RESX
C:\USERS\COSTIN\DESKTOP\MAZE\WINDOWSFORMSAPPLICATION1\WINDOWSFORMSAPPLICATION1\RESOURCES\CHICKEN.PNG
C:\USERS\COSTIN\DESKTOP\MAZE\WINDOWSFORMSAPPLICATION1\WINDOWSFORMSAPPLICATION1\RESOURCES\COSCUOUA.GIF
^C:\USERS\COSTIN\DESKTOP\APLICATII\MAZE BUILDER\MAZE\WINDOWSFORMSAPPLICATION1\WINDOWSFORMSAPPLICATION1\PROPERTIES\RESOURCES.RESX
C:\USERS\COSTIN\DESKTOP\APLICATII\MAZE BUILDER\MAZE\WINDOWSFORMSAPPLICATION1\WINDOWSFORMSAPPLICATION1\RESOURCES\CHICKEN.PNG
C:\USERS\COSTIN\DESKTOP\APLICATII\MAZE BUILDER\MAZE\WINDOWSFORMSAPPLICATION1\WINDOWSFORMSAPPLICATION1\RESOURCES\COSCUOUA.GIF
^C:\USERS\COSTIN\DESKTOP\APLICATII\MAZE BUILDER\MAZE\WINDOWSFORMSAPPLICATION1\WINDOWSFORMSAPPLICATION1\FORM1.RESX
C:\WINDOWS\ASSEMBLY\PUBPOL27.DAT
C:\WINDOWS\MICROSOFT.NET\ASSEMBLY\GAC_MSIL\MICROSOFT.BUILD.TASKS.V4.0\V4.0_4.0.0.0__B03F5F7F11D50A3A\MICROSOFT.BUILD.TASKS.V4.0.DLL
^C:\USERS\COSTIN\DOWNLOADS\MAZE\WINDOWSFORMSAPPLICATION1\WINDOWSFORMSAPPLICATION1\PROPERTIES\RESOURCES.RESX
C:\USERS\COSTIN\DOWNLOADS\MAZE\WINDOWSFORMSAPPLICATION1\WINDOWSFORMSAPPLICATION1\RESOURCES\CHICKEN.PNG
C:\USERS\COSTIN\DOWNLOADS\MAZE\WINDOWSFORMSAPPLICATION1\WINDOWSFORMSAPPLICATION1\RESOURCES\COSCUOUA.GIF
^C:\USERS\COSTIN\DOWNLOADS\MAZE\WINDOWSFORMSAPPLICATION1\WINDOWSFORMSAPPLICATION1\FORM1.RESX
C:\WINDOWS\ASSEMBLY\PUBPOL27.DAT
C:\WINDOWS\MICROSOFT.NET\ASSEMBLY\GAC_MSIL\MICROSOFT.BUILD.TASKS.V4.0\V4.0_4.0.0.0__B03F5F7F11D50A3A\MICROSOFT.BUILD.TASKS.V4.0.DLL
^C:\USERS\COSTIN\DESKTOP\APLICATII\MAZE BUILDER\WINDOWSFORMSAPPLICATION1\WINDOWSFORMSAPPLICATION1\PROPERTIES\RESOURCES.RESX
C:\USERS\COSTIN\DESKTOP\APLICATII\MAZE BUILDER\WINDOWSFORMSAPPLICATION1\WINDOWSFORMSAPPLICATION1\RESOURCES\CHICKEN.PNG
C:\USERS\COSTIN\DESKTOP\APLICATII\MAZE BUILDER\WINDOWSFORMSAPPLICATION1\WINDOWSFORMSAPPLICATION1\RESOURCES\COSCUOUA.GIF
^C:\USERS\COSTIN\DESKTOP\APLICATII\MAZE BUILDER\WINDOWSFORMSAPPLICATION1\WINDOWSFORMSAPPLICATION1\FORM1.RESX
C:\WINDOWS\ASSEMBLY\PUBPOL27.DAT
C:\WINDOWS\MICROSOFT.NET\ASSEMBLY\GAC_MSIL\MICROSOFT.BUILD.TASKS.V4.0\V4.0_4.0.0.0__B03F5F7F11D50A3A\MICROSOFT.BUILD.TASKS.V4.0.DLL
^C:\USERS\COSTIN\DESKTOP\APLICATII\MAZE BUILDER\WALL BREAKER V2.3\WINDOWSFORMSAPPLICATION1\PROPERTIES\RESOURCES.RESX
C:\USERS\COSTIN\DESKTOP\APLICATII\MAZE BUILDER\WALL BREAKER V2.3\WINDOWSFORMSAPPLICATION1\RESOURCES\CHICKEN.PNG
C:\USERS\COSTIN\DESKTOP\APLICATII\MAZE BUILDER\WALL BREAKER V2.3\WINDOWSFORMSAPPLICATION1\RESOURCES\COSCUOUA.GIF
^C:\USERS\COSTIN\DESKTOP\APLICATII\MAZE BUILDER\WALL BREAKER V2.3\WINDOWSFORMSAPPLICATION1\FORM1.RESX
C:\WINDOWS\ASSEMBLY\PUBPOL27.DAT
C:\WINDOWS\MICROSOFT.NET\ASSEMBLY\GAC_MSIL\MICROSOFT.BUILD.TASKS.V4.0\V4.0_4.0.0.0__B03F5F7F11D50A3A\MICROSOFT.BUILD.TASKS.V4.0.DLL
^C:\USERS\COSTIN\DESKTOP\APLICATII\MAZE BUILDER\WALL BREAKER V2.4\WINDOWSFORMSAPPLICATION1\PROPERTIES\RESOURCES.RESX
C:\USERS\COSTIN\DESKTOP\APLICATII\MAZE BUILDER\WALL BREAKER V2.4\WINDOWSFORMSAPPLICATION1\RESOURCES\CHICKEN.PNG
C:\USERS\COSTIN\DESKTOP\APLICATII\MAZE BUILDER\WALL BREAKER V2.4\WINDOWSFORMSAPPLICATION1\RESOURCES\COSCUOUA.GIF
^C:\USERS\COSTIN\DESKTOP\APLICATII\MAZE BUILDER\WALL BREAKER V2.4\WINDOWSFORMSAPPLICATION1\FORM1.RESX
C:\WINDOWS\ASSEMBLY\PUBPOL27.DAT
^C:\USERS\COSTIN\DESKTOP\DIN NOU\APLICATII\MAZE BUILDER\WALL BREAKER V2.4\WINDOWSFORMSAPPLICATION1\FORM1.RESX
C:\WINDOWS\ASSEMBLY\PUBPOL26.DAT
C:\WINDOWS\MICROSOFT.NET\ASSEMBLY\GAC_MSIL\MICROSOFT.BUILD.TASKS.V4.0\V4.0_4.0.0.0__B03F5F7F11D50A3A\MICROSOFT.BUILD.TASKS.V4.0.DLL
^C:\USERS\COSTIN\DESKTOP\DIN NOU\APLICATII\MAZE BUILDER\WALL BREAKER V2.4\WINDOWSFORMSAPPLICATION1\PROPERTIES\RESOURCES.RESX
C:\USERS\COSTIN\DESKTOP\DIN NOU\APLICATII\MAZE BUILDER\WALL BREAKER V2.4\WINDOWSFORMSAPPLICATION1\RESOURCES\CHICKEN.PNG
C:\USERS\COSTIN\DESKTOP\DIN NOU\APLICATII\MAZE BUILDER\WALL BREAKER V2.4\WINDOWSFORMSAPPLICATION1\RESOURCES\COSCUOUA.GIF
